<?xml version="1.0" standalone="no"?>
<!DOCTYPE svg PUBLIC "-//W3C//DTD SVG 20010904//EN"
 "http://www.w3.org/TR/2001/REC-SVG-20010904/DTD/svg10.dtd">
<svg version="1.0" xmlns="http://www.w3.org/2000/svg"
 width="1080.000000pt" height="1080.000000pt" viewBox="0 0 1080.000000 1080.000000"
 preserveAspectRatio="xMidYMid meet">
<metadata>
Created by potrace 1.11, written by Peter Selinger 2001-2013
</metadata>
<g transform="translate(0.000000,1080.000000) scale(0.100000,-0.100000)"
fill="#000000" stroke="none">
<path d="M2333 6318 c4 -1587 3 -1559 67 -1879 39 -192 86 -335 164 -494 110
-224 241 -377 434 -506 421 -281 1046 -414 1872 -396 365 8 615 37 895 106
413 101 655 237 825 463 73 96 141 228 186 358 l33 95 0 -462 1 -463 830 0
830 0 0 2310 0 2310 -830 0 -830 0 0 -1137 c0 -715 -4 -1181 -11 -1253 -21
-234 -81 -452 -160 -586 -44 -75 -178 -210 -251 -252 -178 -105 -428 -174
-723 -202 -142 -13 -548 -13 -690 0 -342 32 -606 111 -739 222 -90 76 -169
228 -206 396 -37 170 -40 277 -40 1560 l0 1252 -831 0 -830 0 4 -1442z"/>
</g>
</svg>
